ISO-10303-21;
HEADER;
FILE_DESCRIPTION(('STEP AP214'),'1');
FILE_NAME('/home/shriwise/occ_blds/meshkit/src/data/cylcube.stp','2015-06-30T18:22:53',(' '),(' '),'Spatial InterOp 3D',' ',' ');
FILE_SCHEMA(('automotive_design'));
ENDSEC;
DATA;
#1=PRODUCT_DEFINITION_CONTEXT('',#13,'design');
#2=APPLICATION_PROTOCOL_DEFINITION('INTERNATIONAL STANDARD','automotive_design',1994,#13);
#3=PRODUCT_CATEGORY_RELATIONSHIP('NONE','NONE',#14,#15);
#4=SHAPE_DEFINITION_REPRESENTATION(#16,#17);
#5=PRODUCT_DEFINITION_CONTEXT('',#18,'design');
#6=APPLICATION_PROTOCOL_DEFINITION('INTERNATIONAL STANDARD','automotive_design',1994,#18);
#7=PRODUCT_CATEGORY_RELATIONSHIP('NONE','NONE',#19,#20);
#8=SHAPE_DEFINITION_REPRESENTATION(#21,#22);
#9= (GEOMETRIC_REPRESENTATION_CONTEXT(3)GLOBAL_UNCERTAINTY_ASSIGNED_CONTEXT((#25))GLOBAL_UNIT_ASSIGNED_CONTEXT((#27,#28,#29))REPRESENTATION_CONTEXT('NONE','WORKSPACE'));
#13=APPLICATION_CONTEXT(' ');
#14=PRODUCT_CATEGORY('part','NONE');
#15=PRODUCT_RELATED_PRODUCT_CATEGORY('detail',' ',(#31));
#16=PRODUCT_DEFINITION_SHAPE('NONE','NONE',#32);
#17=ADVANCED_BREP_SHAPE_REPRESENTATION('1',(#33,#34),#9);
#18=APPLICATION_CONTEXT(' ');
#19=PRODUCT_CATEGORY('part','NONE');
#20=PRODUCT_RELATED_PRODUCT_CATEGORY('detail',' ',(#35));
#21=PRODUCT_DEFINITION_SHAPE('NONE','NONE',#36);
#22=ADVANCED_BREP_SHAPE_REPRESENTATION('2',(#37,#38),#9);
#25=UNCERTAINTY_MEASURE_WITH_UNIT(LENGTH_MEASURE(1.0E-06),#27,'','');
#27= (CONVERSION_BASED_UNIT('MILLIMETRE',#41)LENGTH_UNIT()NAMED_UNIT(#44));
#28= (NAMED_UNIT(#46)PLANE_ANGLE_UNIT()SI_UNIT($,.RADIAN.));
#29= (NAMED_UNIT(#46)SOLID_ANGLE_UNIT()SI_UNIT($,.STERADIAN.));
#31=PRODUCT('1','1','PART-1-DESC',(#52));
#32=PRODUCT_DEFINITION('NONE','NONE',#53,#1);
#33=MANIFOLD_SOLID_BREP('1',#54);
#34=AXIS2_PLACEMENT_3D('',#55,#56,#57);
#35=PRODUCT('2','2','PART-2-DESC',(#58));
#36=PRODUCT_DEFINITION('NONE','NONE',#59,#5);
#37=MANIFOLD_SOLID_BREP('2',#60);
#38=AXIS2_PLACEMENT_3D('',#61,#62,#63);
#41=LENGTH_MEASURE_WITH_UNIT(LENGTH_MEASURE(1.0),#64);
#44=DIMENSIONAL_EXPONENTS(1.0,0.0,0.0,0.0,0.0,0.0,0.0);
#46=DIMENSIONAL_EXPONENTS(0.0,0.0,0.0,0.0,0.0,0.0,0.0);
#52=PRODUCT_CONTEXT('',#13,'mechanical');
#53=PRODUCT_DEFINITION_FORMATION_WITH_SPECIFIED_SOURCE(' ','NONE',#31,.NOT_KNOWN.);
#54=CLOSED_SHELL('',(#65,#66,#67,#68,#69,#70));
#55=CARTESIAN_POINT('',(0.0,0.0,0.0));
#56=DIRECTION('',(0.0,0.0,1.0));
#57=DIRECTION('',(1.0,0.0,0.0));
#58=PRODUCT_CONTEXT('',#18,'mechanical');
#59=PRODUCT_DEFINITION_FORMATION_WITH_SPECIFIED_SOURCE(' ','NONE',#35,.NOT_KNOWN.);
#60=CLOSED_SHELL('',(#71,#72,#73,#74));
#61=CARTESIAN_POINT('',(0.0,0.0,0.0));
#62=DIRECTION('',(0.0,0.0,1.0));
#63=DIRECTION('',(1.0,0.0,0.0));
#64= (NAMED_UNIT(#44)LENGTH_UNIT()SI_UNIT(.MILLI.,.METRE.));
#65=ADVANCED_FACE('',(#76),#77,.T.);
#66=ADVANCED_FACE('',(#78),#79,.F.);
#67=ADVANCED_FACE('',(#80),#81,.F.);
#68=ADVANCED_FACE('',(#82),#83,.F.);
#69=ADVANCED_FACE('',(#84),#85,.F.);
#70=ADVANCED_FACE('',(#86),#87,.F.);
#71=ADVANCED_FACE('',(#88),#89,.T.);
#72=ADVANCED_FACE('',(#90),#91,.T.);
#73=ADVANCED_FACE('',(#92),#93,.T.);
#74=ADVANCED_FACE('',(#94),#95,.T.);
#76=FACE_OUTER_BOUND('',#96,.T.);
#77=PLANE('',#97);
#78=FACE_OUTER_BOUND('',#98,.T.);
#79=PLANE('',#99);
#80=FACE_OUTER_BOUND('',#100,.T.);
#81=PLANE('',#101);
#82=FACE_OUTER_BOUND('',#102,.T.);
#83=PLANE('',#103);
#84=FACE_OUTER_BOUND('',#104,.T.);
#85=PLANE('',#105);
#86=FACE_OUTER_BOUND('',#106,.T.);
#87=PLANE('',#107);
#88=FACE_OUTER_BOUND('',#108,.T.);
#89=CYLINDRICAL_SURFACE('',#109,5.0);
#90=FACE_OUTER_BOUND('',#110,.T.);
#91=CYLINDRICAL_SURFACE('',#111,5.0);
#92=FACE_OUTER_BOUND('',#112,.T.);
#93=PLANE('',#113);
#94=FACE_OUTER_BOUND('',#114,.T.);
#95=PLANE('',#115);
#96=EDGE_LOOP('',(#116,#117,#118,#119));
#97=AXIS2_PLACEMENT_3D('',#120,#121,#122);
#98=EDGE_LOOP('',(#123,#124,#125,#126));
#99=AXIS2_PLACEMENT_3D('',#127,#128,#129);
#100=EDGE_LOOP('',(#130,#131,#132,#133));
#101=AXIS2_PLACEMENT_3D('',#134,#135,#136);
#102=EDGE_LOOP('',(#137,#138,#139,#140));
#103=AXIS2_PLACEMENT_3D('',#141,#142,#143);
#104=EDGE_LOOP('',(#144,#145,#146,#147));
#105=AXIS2_PLACEMENT_3D('',#148,#149,#150);
#106=EDGE_LOOP('',(#151,#152,#153,#154));
#107=AXIS2_PLACEMENT_3D('',#155,#156,#157);
#108=EDGE_LOOP('',(#158,#159,#160,#161));
#109=AXIS2_PLACEMENT_3D('',#162,#163,#164);
#110=EDGE_LOOP('',(#165,#166,#167,#168));
#111=AXIS2_PLACEMENT_3D('',#169,#170,#171);
#112=EDGE_LOOP('',(#172,#173));
#113=AXIS2_PLACEMENT_3D('',#174,#175,#176);
#114=EDGE_LOOP('',(#177,#178));
#115=AXIS2_PLACEMENT_3D('',#179,#180,#181);
#116=ORIENTED_EDGE('',*,*,#182,.T.);
#117=ORIENTED_EDGE('',*,*,#183,.T.);
#118=ORIENTED_EDGE('',*,*,#184,.T.);
#119=ORIENTED_EDGE('',*,*,#185,.T.);
#120=CARTESIAN_POINT('',(30.0,0.0,5.0));
#121=DIRECTION('',(0.0,0.0,1.0));
#122=DIRECTION('',(1.0,0.0,0.0));
#123=ORIENTED_EDGE('',*,*,#186,.T.);
#124=ORIENTED_EDGE('',*,*,#187,.T.);
#125=ORIENTED_EDGE('',*,*,#188,.T.);
#126=ORIENTED_EDGE('',*,*,#189,.T.);
#127=CARTESIAN_POINT('',(30.0,0.0,-5.0));
#128=DIRECTION('',(0.0,0.0,1.0));
#129=DIRECTION('',(1.0,0.0,0.0));
#130=ORIENTED_EDGE('',*,*,#190,.T.);
#131=ORIENTED_EDGE('',*,*,#187,.F.);
#132=ORIENTED_EDGE('',*,*,#191,.F.);
#133=ORIENTED_EDGE('',*,*,#185,.F.);
#134=CARTESIAN_POINT('',(30.0,-5.0,0.0));
#135=DIRECTION('',(0.0,1.0,0.0));
#136=DIRECTION('',(0.0,0.0,1.0));
#137=ORIENTED_EDGE('',*,*,#192,.T.);
#138=ORIENTED_EDGE('',*,*,#188,.F.);
#139=ORIENTED_EDGE('',*,*,#190,.F.);
#140=ORIENTED_EDGE('',*,*,#184,.F.);
#141=CARTESIAN_POINT('',(25.0,0.0,0.0));
#142=DIRECTION('',(1.0,0.0,0.0));
#143=DIRECTION('',(0.0,0.0,-1.0));
#144=ORIENTED_EDGE('',*,*,#193,.T.);
#145=ORIENTED_EDGE('',*,*,#189,.F.);
#146=ORIENTED_EDGE('',*,*,#192,.F.);
#147=ORIENTED_EDGE('',*,*,#183,.F.);
#148=CARTESIAN_POINT('',(30.0,5.0,0.0));
#149=DIRECTION('',(0.0,-1.0,0.0));
#150=DIRECTION('',(0.0,0.0,-1.0));
#151=ORIENTED_EDGE('',*,*,#191,.T.);
#152=ORIENTED_EDGE('',*,*,#186,.F.);
#153=ORIENTED_EDGE('',*,*,#193,.F.);
#154=ORIENTED_EDGE('',*,*,#182,.F.);
#155=CARTESIAN_POINT('',(35.0,0.0,0.0));
#156=DIRECTION('',(-1.0,0.0,0.0));
#157=DIRECTION('',(0.0,0.0,1.0));
#158=ORIENTED_EDGE('',*,*,#194,.F.);
#159=ORIENTED_EDGE('',*,*,#195,.F.);
#160=ORIENTED_EDGE('',*,*,#196,.F.);
#161=ORIENTED_EDGE('',*,*,#197,.F.);
#162=CARTESIAN_POINT('',(0.0,0.0,0.0));
#163=DIRECTION('',(-0.0,-0.0,-1.0));
#164=DIRECTION('',(1.0,0.0,0.0));
#165=ORIENTED_EDGE('',*,*,#194,.T.);
#166=ORIENTED_EDGE('',*,*,#198,.F.);
#167=ORIENTED_EDGE('',*,*,#196,.T.);
#168=ORIENTED_EDGE('',*,*,#199,.F.);
#169=CARTESIAN_POINT('',(0.0,0.0,0.0));
#170=DIRECTION('',(-0.0,-0.0,-1.0));
#171=DIRECTION('',(1.0,0.0,0.0));
#172=ORIENTED_EDGE('',*,*,#199,.T.);
#173=ORIENTED_EDGE('',*,*,#195,.T.);
#174=CARTESIAN_POINT('',(0.0,0.0,-5.0));
#175=DIRECTION('',(0.0,0.0,-1.0));
#176=DIRECTION('',(-1.0,0.0,0.0));
#177=ORIENTED_EDGE('',*,*,#197,.T.);
#178=ORIENTED_EDGE('',*,*,#198,.T.);
#179=CARTESIAN_POINT('',(0.0,0.0,5.0));
#180=DIRECTION('',(0.0,0.0,1.0));
#181=DIRECTION('',(1.0,0.0,0.0));
#182=EDGE_CURVE('',#200,#201,#202,.T.);
#183=EDGE_CURVE('',#201,#203,#204,.T.);
#184=EDGE_CURVE('',#203,#205,#206,.T.);
#185=EDGE_CURVE('',#205,#200,#207,.T.);
#186=EDGE_CURVE('',#208,#209,#210,.T.);
#187=EDGE_CURVE('',#209,#211,#212,.T.);
#188=EDGE_CURVE('',#211,#213,#214,.T.);
#189=EDGE_CURVE('',#213,#208,#215,.T.);
#190=EDGE_CURVE('',#205,#211,#216,.T.);
#191=EDGE_CURVE('',#200,#209,#217,.T.);
#192=EDGE_CURVE('',#203,#213,#218,.T.);
#193=EDGE_CURVE('',#201,#208,#219,.T.);
#194=EDGE_CURVE('',#220,#221,#222,.T.);
#195=EDGE_CURVE('',#223,#220,#224,.T.);
#196=EDGE_CURVE('',#225,#223,#226,.T.);
#197=EDGE_CURVE('',#221,#225,#227,.T.);
#198=EDGE_CURVE('',#225,#221,#228,.T.);
#199=EDGE_CURVE('',#220,#223,#229,.T.);
#200=VERTEX_POINT('',#230);
#201=VERTEX_POINT('',#231);
#202=LINE('',#232,#233);
#203=VERTEX_POINT('',#234);
#204=LINE('',#235,#236);
#205=VERTEX_POINT('',#237);
#206=LINE('',#238,#239);
#207=LINE('',#240,#241);
#208=VERTEX_POINT('',#242);
#209=VERTEX_POINT('',#243);
#210=LINE('',#244,#245);
#211=VERTEX_POINT('',#246);
#212=LINE('',#247,#248);
#213=VERTEX_POINT('',#249);
#214=LINE('',#250,#251);
#215=LINE('',#252,#253);
#216=LINE('',#254,#255);
#217=LINE('',#256,#257);
#218=LINE('',#258,#259);
#219=LINE('',#260,#261);
#220=VERTEX_POINT('',#262);
#221=VERTEX_POINT('',#263);
#222=LINE('',#264,#265);
#223=VERTEX_POINT('',#266);
#224=CIRCLE('',#267,5.0);
#225=VERTEX_POINT('',#268);
#226=LINE('',#269,#270);
#227=CIRCLE('',#271,5.0);
#228=CIRCLE('',#272,5.0);
#229=CIRCLE('',#273,5.0);
#230=CARTESIAN_POINT('',(35.0,-5.0,5.0));
#231=CARTESIAN_POINT('',(35.0,5.0,5.0));
#232=CARTESIAN_POINT('',(35.0,0.0,5.0));
#233=VECTOR('',#274,1.0);
#234=CARTESIAN_POINT('',(25.0,5.0,5.0));
#235=CARTESIAN_POINT('',(30.0,5.0,5.0));
#236=VECTOR('',#275,1.0);
#237=CARTESIAN_POINT('',(25.0,-5.0,5.0));
#238=CARTESIAN_POINT('',(25.0,0.0,5.0));
#239=VECTOR('',#276,1.0);
#240=CARTESIAN_POINT('',(30.0,-5.0,5.0));
#241=VECTOR('',#277,1.0);
#242=CARTESIAN_POINT('',(35.0,5.0,-5.0));
#243=CARTESIAN_POINT('',(35.0,-5.0,-5.0));
#244=CARTESIAN_POINT('',(35.0,0.0,-5.0));
#245=VECTOR('',#278,1.0);
#246=CARTESIAN_POINT('',(25.0,-5.0,-5.0));
#247=CARTESIAN_POINT('',(30.0,-5.0,-5.0));
#248=VECTOR('',#279,1.0);
#249=CARTESIAN_POINT('',(25.0,5.0,-5.0));
#250=CARTESIAN_POINT('',(25.0,0.0,-5.0));
#251=VECTOR('',#280,1.0);
#252=CARTESIAN_POINT('',(30.0,5.0,-5.0));
#253=VECTOR('',#281,1.0);
#254=CARTESIAN_POINT('',(25.0,-5.0,0.0));
#255=VECTOR('',#282,1.0);
#256=CARTESIAN_POINT('',(35.0,-5.0,0.0));
#257=VECTOR('',#283,1.0);
#258=CARTESIAN_POINT('',(25.0,5.0,0.0));
#259=VECTOR('',#284,1.0);
#260=CARTESIAN_POINT('',(35.0,5.0,0.0));
#261=VECTOR('',#285,1.0);
#262=CARTESIAN_POINT('',(5.0,0.0,-5.0));
#263=CARTESIAN_POINT('',(5.0,0.0,5.0));
#264=CARTESIAN_POINT('',(5.0,-6.12323399573677E-16,0.0));
#265=VECTOR('',#286,1.0);
#266=CARTESIAN_POINT('',(-5.0,6.12323399573677E-16,-5.0));
#267=AXIS2_PLACEMENT_3D('',#287,#288,#289);
#268=CARTESIAN_POINT('',(-5.0,6.12323399573677E-16,5.0));
#269=CARTESIAN_POINT('',(-5.0,6.12323399573677E-16,0.0));
#270=VECTOR('',#290,1.0);
#271=AXIS2_PLACEMENT_3D('',#291,#292,#293);
#272=AXIS2_PLACEMENT_3D('',#294,#295,#296);
#273=AXIS2_PLACEMENT_3D('',#297,#298,#299);
#274=DIRECTION('',(0.0,1.0,0.0));
#275=DIRECTION('',(-1.0,0.0,0.0));
#276=DIRECTION('',(0.0,-1.0,0.0));
#277=DIRECTION('',(1.0,0.0,0.0));
#278=DIRECTION('',(0.0,-1.0,0.0));
#279=DIRECTION('',(-1.0,0.0,0.0));
#280=DIRECTION('',(0.0,1.0,0.0));
#281=DIRECTION('',(1.0,0.0,0.0));
#282=DIRECTION('',(0.0,0.0,-1.0));
#283=DIRECTION('',(0.0,0.0,-1.0));
#284=DIRECTION('',(0.0,0.0,-1.0));
#285=DIRECTION('',(0.0,0.0,-1.0));
#286=DIRECTION('',(0.0,0.0,1.0));
#287=CARTESIAN_POINT('',(0.0,0.0,-5.0));
#288=DIRECTION('',(0.0,0.0,-1.0));
#289=DIRECTION('',(1.0,0.0,0.0));
#290=DIRECTION('',(-0.0,-0.0,-1.0));
#291=CARTESIAN_POINT('',(0.0,0.0,5.0));
#292=DIRECTION('',(0.0,0.0,1.0));
#293=DIRECTION('',(1.0,0.0,0.0));
#294=CARTESIAN_POINT('',(0.0,0.0,5.0));
#295=DIRECTION('',(0.0,0.0,1.0));
#296=DIRECTION('',(1.0,0.0,0.0));
#297=CARTESIAN_POINT('',(0.0,0.0,-5.0));
#298=DIRECTION('',(0.0,0.0,-1.0));
#299=DIRECTION('',(1.0,0.0,0.0));
ENDSEC;
END-ISO-10303-21;
