ISO-10303-21;
HEADER;
FILE_DESCRIPTION(('STEP AP214'),'1');
FILE_NAME('/home/jain/meshkit/data/plate_with_4holes.stp','2018-01-17T03:54:18',('Cubit 15.0'),(' '),'Spatial InterOp 3D',' ',' ');
FILE_SCHEMA(('automotive_design'));
ENDSEC;
DATA;
#1=PRODUCT_DEFINITION_CONTEXT('',#9,'design');
#2=APPLICATION_PROTOCOL_DEFINITION('INTERNATIONAL STANDARD','automotive_design',1994,#9);
#3=PRODUCT_CATEGORY_RELATIONSHIP('NONE','NONE',#10,#11);
#4=SHAPE_DEFINITION_REPRESENTATION(#12,#13);
#5= (GEOMETRIC_REPRESENTATION_CONTEXT(3)GLOBAL_UNCERTAINTY_ASSIGNED_CONTEXT((#16))GLOBAL_UNIT_ASSIGNED_CONTEXT((#18,#19,#20))REPRESENTATION_CONTEXT('NONE','WORKSPACE'));
#9=APPLICATION_CONTEXT(' ');
#10=PRODUCT_CATEGORY('part','NONE');
#11=PRODUCT_RELATED_PRODUCT_CATEGORY('detail',' ',(#22));
#12=PRODUCT_DEFINITION_SHAPE('NONE','NONE',#23);
#13=MANIFOLD_SURFACE_SHAPE_REPRESENTATION('1',(#24,#25),#5);
#16=UNCERTAINTY_MEASURE_WITH_UNIT(LENGTH_MEASURE(1.0E-06),#18,'','');
#18= (CONVERSION_BASED_UNIT('MILLIMETRE',#28)LENGTH_UNIT()NAMED_UNIT(#31));
#19= (NAMED_UNIT(#33)PLANE_ANGLE_UNIT()SI_UNIT($,.RADIAN.));
#20= (NAMED_UNIT(#33)SOLID_ANGLE_UNIT()SI_UNIT($,.STERADIAN.));
#22=PRODUCT('1','1','PART-1-DESC',(#39));
#23=PRODUCT_DEFINITION('NONE','NONE',#40,#1);
#24=SHELL_BASED_SURFACE_MODEL('1',(#41));
#25=AXIS2_PLACEMENT_3D('',#42,#43,#44);
#28=LENGTH_MEASURE_WITH_UNIT(LENGTH_MEASURE(1.0),#45);
#31=DIMENSIONAL_EXPONENTS(1.0,0.0,0.0,0.0,0.0,0.0,0.0);
#33=DIMENSIONAL_EXPONENTS(0.0,0.0,0.0,0.0,0.0,0.0,0.0);
#39=PRODUCT_CONTEXT('',#9,'mechanical');
#40=PRODUCT_DEFINITION_FORMATION_WITH_SPECIFIED_SOURCE(' ','NONE',#22,.NOT_KNOWN.);
#41=CLOSED_SHELL('',(#46));
#42=CARTESIAN_POINT('',(0.0,0.0,0.0));
#43=DIRECTION('',(0.0,0.0,1.0));
#44=DIRECTION('',(1.0,0.0,0.0));
#45= (NAMED_UNIT(#31)LENGTH_UNIT()SI_UNIT(.MILLI.,.METRE.));
#46=FACE_SURFACE('',(#48,#49,#50,#51,#52),#53,.T.);
#48=FACE_BOUND('',#54,.T.);
#49=FACE_BOUND('',#55,.T.);
#50=FACE_BOUND('',#56,.T.);
#51=FACE_BOUND('',#57,.T.);
#52=FACE_BOUND('',#58,.T.);
#53=PLANE('',#59);
#54=EDGE_LOOP('',(#60,#61));
#55=EDGE_LOOP('',(#62,#63));
#56=EDGE_LOOP('',(#64,#65));
#57=EDGE_LOOP('',(#66,#67));
#58=EDGE_LOOP('',(#68,#69));
#59=AXIS2_PLACEMENT_3D('',#70,#71,#72);
#60=ORIENTED_EDGE('',*,*,#73,.T.);
#61=ORIENTED_EDGE('',*,*,#74,.T.);
#62=ORIENTED_EDGE('',*,*,#75,.T.);
#63=ORIENTED_EDGE('',*,*,#76,.T.);
#64=ORIENTED_EDGE('',*,*,#77,.T.);
#65=ORIENTED_EDGE('',*,*,#78,.T.);
#66=ORIENTED_EDGE('',*,*,#79,.T.);
#67=ORIENTED_EDGE('',*,*,#80,.T.);
#68=ORIENTED_EDGE('',*,*,#81,.T.);
#69=ORIENTED_EDGE('',*,*,#82,.T.);
#70=CARTESIAN_POINT('',(0.0,0.0,0.0));
#71=DIRECTION('',(0.0,0.0,1.0));
#72=DIRECTION('',(1.0,0.0,0.0));
#73=EDGE_CURVE('',#83,#84,#85,.T.);
#74=EDGE_CURVE('',#84,#83,#86,.T.);
#75=EDGE_CURVE('',#87,#88,#89,.T.);
#76=EDGE_CURVE('',#88,#87,#90,.T.);
#77=EDGE_CURVE('',#91,#92,#93,.T.);
#78=EDGE_CURVE('',#92,#91,#94,.T.);
#79=EDGE_CURVE('',#95,#96,#97,.T.);
#80=EDGE_CURVE('',#96,#95,#98,.T.);
#81=EDGE_CURVE('',#99,#100,#101,.T.);
#82=EDGE_CURVE('',#100,#99,#102,.T.);
#83=VERTEX_POINT('',#103);
#84=VERTEX_POINT('',#104);
#85=CIRCLE('',#105,0.2);
#86=CIRCLE('',#106,0.2);
#87=VERTEX_POINT('',#107);
#88=VERTEX_POINT('',#108);
#89=CIRCLE('',#109,0.2);
#90=CIRCLE('',#110,0.2);
#91=VERTEX_POINT('',#111);
#92=VERTEX_POINT('',#112);
#93=CIRCLE('',#113,0.2);
#94=CIRCLE('',#114,0.2);
#95=VERTEX_POINT('',#115);
#96=VERTEX_POINT('',#116);
#97=CIRCLE('',#117,0.2);
#98=CIRCLE('',#118,0.2);
#99=VERTEX_POINT('',#119);
#100=VERTEX_POINT('',#120);
#101=CIRCLE('',#121,1.0);
#102=CIRCLE('',#122,1.0);
#103=CARTESIAN_POINT('',(-0.3,0.0,0.0));
#104=CARTESIAN_POINT('',(-0.7,-2.44929359829471E-17,0.0));
#105=AXIS2_PLACEMENT_3D('',#123,#124,#125);
#106=AXIS2_PLACEMENT_3D('',#126,#127,#128);
#107=CARTESIAN_POINT('',(0.7,0.0,0.0));
#108=CARTESIAN_POINT('',(0.3,-2.44929359829471E-17,0.0));
#109=AXIS2_PLACEMENT_3D('',#129,#130,#131);
#110=AXIS2_PLACEMENT_3D('',#132,#133,#134);
#111=CARTESIAN_POINT('',(0.2,-0.5,0.0));
#112=CARTESIAN_POINT('',(-0.2,-0.5,0.0));
#113=AXIS2_PLACEMENT_3D('',#135,#136,#137);
#114=AXIS2_PLACEMENT_3D('',#138,#139,#140);
#115=CARTESIAN_POINT('',(0.2,0.5,0.0));
#116=CARTESIAN_POINT('',(-0.2,0.5,0.0));
#117=AXIS2_PLACEMENT_3D('',#141,#142,#143);
#118=AXIS2_PLACEMENT_3D('',#144,#145,#146);
#119=CARTESIAN_POINT('',(1.0,0.0,0.0));
#120=CARTESIAN_POINT('',(-1.0,1.22464679914735E-16,0.0));
#121=AXIS2_PLACEMENT_3D('',#147,#148,#149);
#122=AXIS2_PLACEMENT_3D('',#150,#151,#152);
#123=CARTESIAN_POINT('',(-0.5,0.0,0.0));
#124=DIRECTION('',(0.0,0.0,-1.0));
#125=DIRECTION('',(1.0,0.0,0.0));
#126=CARTESIAN_POINT('',(-0.5,0.0,0.0));
#127=DIRECTION('',(0.0,0.0,-1.0));
#128=DIRECTION('',(1.0,0.0,0.0));
#129=CARTESIAN_POINT('',(0.5,0.0,0.0));
#130=DIRECTION('',(0.0,0.0,-1.0));
#131=DIRECTION('',(1.0,0.0,0.0));
#132=CARTESIAN_POINT('',(0.5,0.0,0.0));
#133=DIRECTION('',(0.0,0.0,-1.0));
#134=DIRECTION('',(1.0,0.0,0.0));
#135=CARTESIAN_POINT('',(0.0,-0.5,0.0));
#136=DIRECTION('',(0.0,0.0,-1.0));
#137=DIRECTION('',(1.0,0.0,0.0));
#138=CARTESIAN_POINT('',(0.0,-0.5,0.0));
#139=DIRECTION('',(0.0,0.0,-1.0));
#140=DIRECTION('',(1.0,0.0,0.0));
#141=CARTESIAN_POINT('',(0.0,0.5,0.0));
#142=DIRECTION('',(0.0,0.0,-1.0));
#143=DIRECTION('',(1.0,0.0,0.0));
#144=CARTESIAN_POINT('',(0.0,0.5,0.0));
#145=DIRECTION('',(0.0,0.0,-1.0));
#146=DIRECTION('',(1.0,0.0,0.0));
#147=CARTESIAN_POINT('',(0.0,0.0,0.0));
#148=DIRECTION('',(0.0,0.0,1.0));
#149=DIRECTION('',(1.0,0.0,0.0));
#150=CARTESIAN_POINT('',(0.0,0.0,0.0));
#151=DIRECTION('',(0.0,0.0,1.0));
#152=DIRECTION('',(1.0,0.0,0.0));
ENDSEC;
END-ISO-10303-21;
